<?xml version="1.0" encoding="UTF-8" standalone="no"?>
<svg
   xmlns:dc="http://purl.org/dc/elements/1.1/"
   xmlns:cc="http://creativecommons.org/ns#"
   xmlns:rdf="http://www.w3.org/1999/02/22-rdf-syntax-ns#"
   xmlns:svg="http://www.w3.org/2000/svg"
   xmlns="http://www.w3.org/2000/svg"
   viewBox="0 0 64 64"
   x="0px"
   y="0px"
   version="1.1"
   id="svg2267"
   width="64"
   height="64">
  <metadata
     id="metadata2273">
    <rdf:RDF>
      <cc:Work
         rdf:about="">
        <dc:format>image/svg+xml</dc:format>
        <dc:type
           rdf:resource="http://purl.org/dc/dcmitype/StillImage" />
        <dc:title></dc:title>
      </cc:Work>
    </rdf:RDF>
  </metadata>
  <defs
     id="defs2271" />
  <g
     data-name="Layer 46"
     id="g2261">
    <path
       d="m 56.73,10.82 a 16.36,16.36 0 0 0 -23,0 L 32,12.51 30.3,10.82 a 16.28,16.28 0 0 0 -23,23 l 23.64,23.7 a 1.51,1.51 0 0 0 2.12,0 L 56.73,33.85 a 16.36,16.36 0 0 0 0,-23.03 z"
       id="path2259"
       style="fill:#b83205;fill-opacity:1" />
  </g>
</svg>
