[
    {
        "from": 1001,
        "to": 1941,
        "dsb_slug": "desaechsdsb"
    },
    {
        "from": 1941,
        "to": 2601,
        "dsb_slug": "debralda"
    },
    {
        "from": 2601,
        "to": 3001,
        "dsb_slug": "desaechsdsb"
    },
    {
        "from": 3001,
        "to": 4001,
        "dsb_slug": "debralda"
    },
    {
        "from": 4001,
        "to": 4581,
        "dsb_slug": "desaechsdsb"
    },
    {
        "from": 4581,
        "to": 4641,
        "dsb_slug": "detlfdi"
    },
    {
        "from": 4641,
        "to": 4891,
        "dsb_slug": "desaechsdsb"
    },
    {
        "from": 4891,
        "to": 6001,
        "dsb_slug": "debralda"
    },
    {
        "from": 6001,
        "to": 6551,
        "dsb_slug": "desalbd"
    },
    {
        "from": 6551,
        "to": 6601,
        "dsb_slug": "detlfdi"
    },
    {
        "from": 6601,
        "to": 7301,
        "dsb_slug": "desalbd"
    },
    {
        "from": 7301,
        "to": 7917,
        "dsb_slug": "detlfdi"
    },
    {
        "from": 7917,
        "to": 7919,
        "dsb_slug": "desaechsdsb"
    },
    {
        "from": 7919,
        "to": 7951,
        "dsb_slug": "detlfdi"
    },
    {
        "from": 7951,
        "to": 7953,
        "dsb_slug": "desaechsdsb"
    },
    {
        "from": 7953,
        "to": 7982,
        "dsb_slug": "detlfdi"
    },
    {
        "from": 7982,
        "to": 7985,
        "dsb_slug": "desaechsdsb"
    },
    {
        "from": 7985,
        "to": 8001,
        "dsb_slug": "detlfdi"
    },
    {
        "from": 8001,
        "to": 10001,
        "dsb_slug": "desaechsdsb"
    },
    {
        "from": 10001,
        "to": 12529,
        "dsb_slug": "deberlbdi"
    },
    {
        "from": 12529,
        "to": 12531,
        "dsb_slug": "debralda"
    },
    {
        "from": 12531,
        "to": 12625,
        "dsb_slug": "deberlbdi"
    },
    {
        "from": 12625,
        "to": 12627,
        "dsb_slug": "debralda"
    },
    {
        "from": 12627,
        "to": 14401,
        "dsb_slug": "deberlbdi"
    },
    {
        "from": 14401,
        "to": 17001,
        "dsb_slug": "debralda"
    },
    {
        "from": 17001,
        "to": 17261,
        "dsb_slug": "demvldi"
    },
    {
        "from": 17261,
        "to": 17301,
        "dsb_slug": "debralda"
    },
    {
        "from": 17301,
        "to": 17337,
        "dsb_slug": "demvldi"
    },
    {
        "from": 17337,
        "to": 17345,
        "dsb_slug": "debralda"
    },
    {
        "from": 17345,
        "to": 19307,
        "dsb_slug": "demvldi"
    },
    {
        "from": 19307,
        "to": 19361,
        "dsb_slug": "debralda"
    },
    {
        "from": 19361,
        "to": 20001,
        "dsb_slug": "demvldi"
    },
    {
        "from": 20001,
        "to": 21202,
        "dsb_slug": "dehmbbfdi"
    },
    {
        "from": 21202,
        "to": 21451,
        "dsb_slug": "dendslfd"
    },
    {
        "from": 21451,
        "to": 21522,
        "dsb_slug": "deshuld"
    },
    {
        "from": 21522,
        "to": 21524,
        "dsb_slug": "dendslfd"
    },
    {
        "from": 21524,
        "to": 21601,
        "dsb_slug": "deshuld"
    },
    {
        "from": 21601,
        "to": 22001,
        "dsb_slug": "dendslfd"
    },
    {
        "from": 22001,
        "to": 22801,
        "dsb_slug": "dehmbbfdi"
    },
    {
        "from": 22801,
        "to": 23921,
        "dsb_slug": "deshuld"
    },
    {
        "from": 23921,
        "to": 24001,
        "dsb_slug": "demvldi"
    },
    {
        "from": 24001,
        "to": 26001,
        "dsb_slug": "deshuld"
    },
    {
        "from": 26001,
        "to": 27483,
        "dsb_slug": "dendslfd"
    },
    {
        "from": 27483,
        "to": 27499,
        "dsb_slug": "deshuld"
    },
    {
        "from": 27499,
        "to": 27501,
        "dsb_slug": "dehmbbfdi"
    },
    {
        "from": 27501,
        "to": 27607,
        "dsb_slug": "debrelfdi"
    },
    {
        "from": 27607,
        "to": 28001,
        "dsb_slug": "dendslfd"
    },
    {
        "from": 28001,
        "to": 28784,
        "dsb_slug": "debrelfdi"
    },
    {
        "from": 28784,
        "to": 32001,
        "dsb_slug": "dendslfd"
    },
    {
        "from": 32001,
        "to": 34001,
        "dsb_slug": "denrwldi"
    },
    {
        "from": 34001,
        "to": 34331,
        "dsb_slug": "dehessbdi"
    },
    {
        "from": 34331,
        "to": 34356,
        "dsb_slug": "dendslfd"
    },
    {
        "from": 34356,
        "to": 34401,
        "dsb_slug": "dehessbdi"
    },
    {
        "from": 34401,
        "to": 34441,
        "dsb_slug": "denrwldi"
    },
    {
        "from": 34441,
        "to": 36401,
        "dsb_slug": "dehessbdi"
    },
    {
        "from": 36401,
        "to": 37001,
        "dsb_slug": "dendslfd"
    },
    {
        "from": 37001,
        "to": 37201,
        "dsb_slug": "dehessbdi"
    },
    {
        "from": 37301,
        "to": 37401,
        "dsb_slug": "detlfdi"
    },
    {
        "from": 37401,
        "to": 37651,
        "dsb_slug": "dendslfd"
    },
    {
        "from": 37651,
        "to": 37689,
        "dsb_slug": "denrwldi"
    },
    {
        "from": 37689,
        "to": 37692,
        "dsb_slug": "dendslfd"
    },
    {
        "from": 37692,
        "to": 37697,
        "dsb_slug": "denrwldi"
    },
    {
        "from": 37697,
        "to": 38481,
        "dsb_slug": "dendslfd"
    },
    {
        "from": 38481,
        "to": 38501,
        "dsb_slug": "desalbd"
    },
    {
        "from": 38501,
        "to": 38801,
        "dsb_slug": "dendslfd"
    },
    {
        "from": 38801,
        "to": 40001,
        "dsb_slug": "desalbd"
    },
    {
        "from": 40001,
        "to": 48432,
        "dsb_slug": "denrwldi"
    },  
    {   "from": 48442,
        "to": 48465,
        "dsb_slug": "dendslfd"
    },   
    {
        "from": 48466,
        "to": 48478,
        "dsb_slug": "denrwldi"
    },
    {
        "from": 48478,
        "to": 48481,
        "dsb_slug": "dendslfd"
    },
    {
        "from": 48481,
        "to": 48486,
        "dsb_slug": "denrwldi"
    },
    {
        "from": 48486,
        "to": 48489,
        "dsb_slug": "dendslfd"
    },
    {
        "from": 48489,
        "to": 48497,
        "dsb_slug": "denrwldi"
    },
    {
        "from": 48497,
        "to": 48541,
        "dsb_slug": "dendslfd"
    },
    {
        "from": 48541,
        "to": 49001,
        "dsb_slug": "denrwldi"
    },
    {
        "from": 49001,
        "to": 49461,
        "dsb_slug": "dendslfd"
    },
    {
        "from": 49461,
        "to": 49551,
        "dsb_slug": "denrwldi"
    },
    {
        "from": 49551,
        "to": 50101,
        "dsb_slug": "dendslfd"
    },
    {
        "from": 50101,
        "to": 51598,
        "dsb_slug": "denrwldi"
    },
    {
        "from": 51598,
        "to": 51601,
        "dsb_slug": "derlpbdi"
    },
    {
        "from": 51601,
        "to": 53401,
        "dsb_slug": "denrwldi"
    },
    {
        "from": 53401,
        "to": 53581,
        "dsb_slug": "derlpbdi"
    },
    {
        "from": 53581,
        "to": 53614,
        "dsb_slug": "denrwldi"
    },
    {
        "from": 53614,
        "to": 53621,
        "dsb_slug": "derlpbdi"
    },
    {
        "from": 53621,
        "to": 54201,
        "dsb_slug": "denrwldi"
    },
    {
        "from": 54201,
        "to": 55240,
        "dsb_slug": "derlpbdi"
    },
    {
        "from": 55240,
        "to": 55253,
        "dsb_slug": "dehessbdi"
    },
    {
        "from": 55253,
        "to": 57001,
        "dsb_slug": "derlpbdi"
    },
    {
        "from": 57001,
        "to": 57501,
        "dsb_slug": "denrwldi"
    },
    {
        "from": 57501,
        "to": 58001,
        "dsb_slug": "derlpbdi"
    },
    {
        "from": 58001,
        "to": 60001,
        "dsb_slug": "denrwldi"
    },
    {
        "from": 60001,
        "to": 63701,
        "dsb_slug": "dehessbdi"
    },
    {
        "from": 63701,
        "to": 64201,
        "dsb_slug": "debaylda"
    },
    {
        "from": 64201,
        "to": 65558,
        "dsb_slug": "dehessbdi"
    },
    {
        "from": 65558,
        "to": 65583,
        "dsb_slug": "derlpbdi"
    },
    {
        "from": 65583,
        "to": 65621,
        "dsb_slug": "dehessbdi"
    },
    {
        "from": 65621,
        "to": 65627,
        "dsb_slug": "derlpbdi"
    },
    {
        "from": 65627,
        "to": 65629,
        "dsb_slug": "dehessbdi"
    },
    {
        "from": 65629,
        "to": 65701,
        "dsb_slug": "derlpbdi"
    },
    {
        "from": 65701,
        "to": 65936,
        "dsb_slug": "dehessbdi"
    },
    {
        "from": 66001,
        "to": 66459,
        "dsb_slug": "desaarudz"
    },
    {
        "from": 66461,
        "to": 66511,
        "dsb_slug": "derlpbdi"
    },
    {
        "from": 66511,
        "to": 66841,
        "dsb_slug": "deshuld"
    },
    {
        "from": 66841,
        "to": 68001,
        "dsb_slug": "derlpbdi"
    },
    {
        "from": 68001,
        "to": 68501,
        "dsb_slug": "debawueldb"
    },
    {
        "from": 68501,
        "to": 68520,
        "dsb_slug": "dehessbdi"
    },
    {
        "from": 68520,
        "to": 68601,
        "dsb_slug": "debawueldb"
    },
    {
        "from": 68601,
        "to": 68701,
        "dsb_slug": "dehessbdi"
    },
    {
        "from": 68701,
        "to": 69235,
        "dsb_slug": "debawueldb"
    },
    {
        "from": 69235,
        "to": 69240,
        "dsb_slug": "dehessbdi"
    },
    {
        "from": 69240,
        "to": 69430,
        "dsb_slug": "debawueldb"
    },
    {
        "from": 69430,
        "to": 69434,
        "dsb_slug": "dehessbdi"
    },
    {
        "from": 69434,
        "to": 69479,
        "dsb_slug": "debawueldb"
    },
    {
        "from": 69479,
        "to": 69489,
        "dsb_slug": "dehessbdi"
    },
    {
        "from": 69489,
        "to": 69503,
        "dsb_slug": "debawueldb"
    },
    {
        "from": 69503,
        "to": 69510,
        "dsb_slug": "dehessbdi"
    },
    {
        "from": 69510,
        "to": 69515,
        "dsb_slug": "debawueldb"
    },
    {
        "from": 69515,
        "to": 70001,
        "dsb_slug": "dehessbdi"
    },
    {
        "from": 70001,
        "to": 76711,
        "dsb_slug": "debawueldb"
    },
    {
        "from": 76711,
        "to": 77601,
        "dsb_slug": "derlpbdi"
    },
    {
        "from": 77601,
        "to": 80001,
        "dsb_slug": "debawueldb"
    },
    {
        "from": 80001,
        "to": 87491,
        "dsb_slug": "debaylda"
    },
    {
        "from": 87491,
        "to": 87493,
        "dsbid": 0
    },
    {
        "from": 87493,
        "to": 87567,
        "dsb_slug": "debaylda"
    },
    {
        "from": 87567,
        "to": 87571,
        "dsbid": 0
    },
    {
        "from": 87571,
        "to": 88001,
        "dsb_slug": "debaylda"
    },
    {
        "from": 88001,
        "to": 88101,
        "dsb_slug": "debawueldb"
    },
    {
        "from": 88101,
        "to": 88181,
        "dsb_slug": "debaylda"
    },
    {
        "from": 88181,
        "to": 89201,
        "dsb_slug": "debawueldb"
    },
    {
        "from": 89201,
        "to": 89501,
        "dsb_slug": "debaylda"
    },
    {
        "from": 89501,
        "to": 90001,
        "dsb_slug": "debawueldb"
    },
    {
        "from": 90001,
        "to": 96501,
        "dsb_slug": "debaylda"
    },
    {
        "from": 96501,
        "to": 97001,
        "dsb_slug": "detlfdi"
    },
    {
        "from": 97001,
        "to": 97911,
        "dsb_slug": "debaylda"
    },
    {
        "from": 97911,
        "to": 98501,
        "dsb_slug": "debawueldb"
    },
    {
        "from": 98501,
        "to": 99999,
        "dsb_slug": "detlfdi"
    }
]
