{

    "dsb-email-placeholder": "E-Mail wird automatisch von der Postadresse abgeleitet",
    "no-email-found": "Keine E-Mail gefunden.",
    "title-for-what": "Wofür möchtest du eine Beschwerde generieren?",
    "type-app": "für eine Android-App",
    "type-webpage": "für eine Webseite",

    "title-already-sent": "Hast du bereits eine Aufforderung zum Entfernen von Trackern gesendet?",
    "complaint-info": "Vor der Beschwerde musst du den Seitenbetreiber direkt zur Entfernung des Trackers auffordern und vier Wochen Zeit geben.",

    "option-request": "Bin am Anfang und möchte erstmal das Aufforderungs-Schreiben für den Seitenbetreiber generieren.",
    "option-complaint": "Schon vor vier Wochen geschehen! Ich möchte jetzt die Beschwerde für die Datenschutzbehörde generieren.",

    "title-insert-url": "Gibt hier die URL der Webseite mit den Tracker an",
    "insert-url-default": "https://",
    "insert-url-error-msg": "Bitte gebe eine gültige URL ein.",

    "title-email-privacy-officer": "E-Mail des/der Datenschutzbeauftragten der Webseite",
    "email-location": "Die E-Mail befindet sich in der Regel auf der Datenschutz-Seite einer Webseite. Sollte dies nicht der Fall sein, verwende die E-Mail für den allgemeinen Kontakt.",

    "title-address-site-operator": "Postadresse des Seitenbetreibers",
    "address-note": "Ausschlaggebend für eine Beschwerde ist die Postanschrift des Seitenbetreibers.",
    "address-location": "Die Adresse befindet sich in der Regel im Impressum der Webseite.",
    "address-error-msg": "Für diese Adresse konnte keine Datenschutzbehörde ermittelt werden, bitte überprüfe deine Angaben.",

    "check-is-bfdi": "Es handelt sich hierbei um eine Bundesbehörde, eine öffentliche Stelle des Bundes oder ein Telekommunikations- oder Postdienstunternehmen.",

    "title-tracker-found": "Welche Tracker hast du auf der Webseite gefunden?",
    "network-analysis": "Du kannst die Tracker mit Hilfe der Netzwerkanalyse deines Browsers ausfindig machen.",
    "network-analysis-link": "Anleitung zum Analysieren von Trackern ansehen.",
    "filter-tracker": "Tracker filtern...",
    "fix-selected-tracker": "Ausgewählte Tracker fixieren",

    "warning-configfromurl": "Die folgenden Tracker hattest du zuvor ausgewählt. Bitte prüfe nun, ob du sie jetzt noch auf der Seite findest.",


    "title-time": "Ungefähre Zeit der letzten Prüfung",

    "title-receipts": "Welche Belege fügst du an deine Beschwerde an?",
    "receipts-options": [
        {
            "label": "Screenshot (z.B. von Netzwerkanalyse oder Web-Speicher)",
            "value": "ein Screenshot"
        },
        {
            "label": "HAR-Datei der Netzwerkanalyse",
            "value": "eine HAR-Datei"
        },
        {
            "label": "Die Aufforderungs-Email",
            "value": "die E-Mail mit der Aufforderung zum Entfernen"
        }
    ],

    "title-consent": "Hast du aktiv deine Einwilligung zum Tracken gegeben?",
    "desc-consent": "Du bist sicher, dass du keine aktive Einwilligung gegeben hast, bevor der Tracker auftauchte? <b>Lösche daher vor dem Test deine Cookies!</b>",
    "consent-options": [
        { "value": "ja", "label": "Keine Ahnung / habe eingewilligt." },
        { "value": "nein", "label": "Habe sicher nicht eingewilligt." },
        {
            "value": "minimal",
            "label": "Um die Website zu nutzen, musste ich einer unbedingt erforderlichen  Minimalauswahl zustimmen.",
            "checkedValue": "Insbesondere bei einer Beschwerde solltest du einen Screenshot deiner Auswahl hinzufügen, damit es keine Missverständnisse gibt."
        }
    ],
    "consent-buttons-title": "Optional: Ausgewählte Buttons",
    "consent-buttons-placeholder": "z.B. \"Optionen\"/\"Speichern\"",

    "person-title": "Fast fertig! Du kannst nun noch deinen Namen und Postadresse eintragen.",
    "person-desc": "Dein Name ist nicht unbedingt notwendig. Bei Beschwerden ist es aber empfohlen deinen Namen und deine Postadresse zu hinterlassen.",
    "person-placeholder": "Dein Name und evtl. Postadresse ...",

    "person-unencrypted-mail": "Die Behörde darf mich per unverschlüsselter Mail kontaktieren",
    "person-disclose-name": "Die Behörde darf meinen Namen gegenüber dem Beschwerdegegner offenlegen",

    "include-in-list-title": "URL in Tracktor-Liste aufnehmen",
    "include-in-list-desc": "Zeige anderen, dass sich bereits jemand um diese Webseiten kümmert: Die URL erscheint dann in unserer öffentlichen Liste. Bitte nicht anwählen, wenn die URL einen Namen enthält wie beispielsweise \"maiers-trackingklitsche.de\".",
    "include-in-list-label": "Webseite in die Liste aufnehmen",

    "error-no-tracker-selected": "Es muss mindestens ein Tracker ausgewählt werden.",
    "show-all-tracker": "+ Weitere {{count}} Tracker anzeigen",
    "show-common-tracker": "- Nur häufige Tracker anzeigen",

    "search-networktraffic": "Suchbegriff für die Netzwerkanalyse:",
    "custom-input-placeholder": "Zusatzinformationen benötigt (z.B. Subdomain, Cookies)",
    "copy-url": "Tracker-URL kopieren",


    "complaint-subject": "Beschwerde wegen Trackingeinbettungen bei {{domain}}",
    "request-subject": "Datenschutzprobleme bei {{domain}} (mit Frist von vier Wochen)",


    "title-message": "Vorschau der Nachricht",

    "generate-complaint": "Beschwerde generieren",
    "generate-request": "Aufforderung generieren",

    "show-details": "Details einblenden",
    "hide-details": "Details ausblenden",

    "mail-to": "An",
    "mail-subject": "Betreff",
    "action-open-mail": "Nachricht in E-Mail-Programm öffnen",
    "action-copy": "Nachricht in die Zwischenablage kopieren",
    "action-reminder": "Erinnerung für Beschwerde in Kalender eintragen",
    "consent-warning": "Tracker sind bei gegebener Einwilligung meist rechtlich nicht zu beanstanden. Prüfe deine Angaben zur Einwilligung und entscheide, ob du die E-Mail so wirklich absenden willst.",

    "saved-url": "Zu dieser Aufforderung eine Beschwerde generieren.",
    "saved-url-hint": "Tipp: Rechtsklick > Lesezeichen erstellen, um die aktuellen Daten für die Beschwerde im Browser zu speichern.",

    "moreinfos-title": "Weiterführende Informationen",
    "responsible-dpo": "Für diese Website ist {{dsb}} zuständig.",
    "complaint-form": "Zum Online-Beschwerdeformular",

    "back-to-data-entry": "Zurück zur Dateneingabe",

    "reminder-title": "Beschwerde für {{domain}} ist fällig",
    "reminder-filename": "tracktor.it_{{domain}}",
    "reminder-desc": "Der Seitenbetreiber von {{domain}} hatte nun vier Wochen Zeit, die Tracker zu entfernen. Falls er dies nicht getan hat, ist es nun an der Zeit, eine Beschwerde zu erstellen und an die zuständige Datenschutzbehörde zu schicken."

}
