{
    "html-title": "DSGVO-Beschwerdegenerator",

    "twitter": {
        "desc": "Ein DSGVO-Beschwerdegenerator gegen Tracking-Einbettungen"
    },

    "common": {
        "and": "und",
        "to": "Zum",
        "or": "oder"
    },

    "message-copied": "Nachricht erfolgreich kopiert."
}