{
    "slug": "adex",
    "priority": 0,
    "name": "The Adex (mit Cookie \"axd\")",
    "tracking-urls": ["dmp.theadex.com"],
    "note": {
        "image": "/images/screenshots-tracker/adex_axd.png",
        "title": "axd-Cookie Screenshot",
        "text": "Einbettungen von dmp.theadex.com sind ohne Einwilligung immer dann rechtswidrig, wenn das profilbildende Cookie \"axd\" geschrieben oder gelesen wird. Für die Beschwerde einen Beleg dieser Cookie-Übertragung anfügen, z.B. Screenshot oder HAR-Datei"
    },            
    "template": "The Adex:\nDieser Anbieter betreibt eine Data Management Platform (DMP), die Seitenbetreiber einsetzen, um personalisierte Werbung auszuspielen. Dafür werden Verhaltensprofile von einzelnen Nutzern plattformübergreifend und geräteübergreifend gesammelt. Der Anbieter kann zudem Interaktionen mit Werbeanzeigen registrieren sowie Marktforschung mit diesen Daten betreiben. Zu diesem Zwecke wird ein Cookie mit dem Namen 'axd' im Browser des Besuchers geschrieben und gelesen. Es enthält eine personenbeziehbare ID.\nhttps://theadex.com/datenschutz-plattform/"
}
