{
    "slug": "adform",
    "priority": 0,
    "name": "Adform (mit Cookie \"uid\")",
    "tracking-urls": ["adform.net"],
    "note": {
        "image": "/images/screenshots-tracker/adform_uid.png",
        "title": "uid-Cookie Screenshot",
        "text": "Einbettungen unter der URL \"adform.net\" sind ohne Einwilligung immer dann rechtswidrig, wenn das profilbildende Cookie \"uid\" geschrieben oder gelesen wird. Für die Beschwerde einen Beleg dieser Cookie-Übertragung anfügen, z.B. Screenshot oder HAR-Datei."
    },            
    "template": "Adform:\nUnter der URL \"adform.net\" hat der Seitenbetreiber den Dienstleister Adform eingebunden, der mit seiner Plattform umfangreiche Dienste für die personalisierten Werbevermarktung zur Verfügung stellt. Dabei wurde das Cookie \"uid\" in meinem Browser geschrieben und/oder gelesen, das eine eindeutige, personenbeziehbare Kennung enthält. Damit wird ein Profil erstellt, das meine Aktivitäten auf Websites und in Apps aufzeichnet, darunter auch die Dauer der Aktivitäten oder die dabei verwendeten Suchbegriffe. Das System kann dabei auch die Nutzung verschiedener Geräte erkennen und in einem Profil zusammenfassen sowie Standortdaten enthalten. Das so entstandene Interessensprofil kann mit externen Daten angereichert werden sowie mit Profilen von mir auf anderen Plattformen abgeglichen werden (\"Cookie-Matching\"). Zudem wird von Adform auch meine Interaktion mit Anzeigen ausgewertet.\nhttps://site.adform.com/privacy-center/platform-privacy/product-and-services-privacy-policy/\nAdform stellt dabei auch einen Marktplatz zur Verfügung, auf dem mein Verhaltensprofil mit Drittanbietern getauscht oder gehandelt werden kann.\nhttps://site.adform.com/products/integrated-advertising-platform-for-publishers/private-marketplace/"
}

