{
    "slug": "salesforce-audience-studio",
    "name": "Salesforce Audience Studio (mit Cookie \"_kuid_ \" oder Parameter \"_kuid\")",
    "priority": 0,
    "tracking-urls": ["krxd.net"],
    "note": {
        "image": "/images/screenshots-tracker/kuid_salesforce.png",
        "title": "Kuid als Cookie (oben) und als Parameter (unten)",
        "text": "Einbettungen von krxd.net sind ohne Einwilligung immer dann rechtswidrig, wenn die personenbeziehbare ID namens \"kuid\" als Cookie geschrieben oder gelesen wird oder als Parameter in einem Request übertragen wird. Für die Beschwerde einen Beleg dieser Vorgänge anfügen, z.B. Screenshot oder HAR-Datei"
    },            
    "template": "Salesforce Audience Studio:\nMit der vom Seitenbetreiber eingebetteten Domain krxd.net des Drittanbieters Salesforce wird eine eindeutige pseudonyme ID (die Krux User ID) ausgetauscht, um die Browser der Seitenbesucher eindeutig zu identifzieren. Sie wird über Cookies gesetzt und gelesen oder als Parameter mit weiteren Daten übermittelt.\nhttps://konsole.zendesk.com/hc/en-us/articles/115013802488-KUID\nDamit werden die Aktivitäten eines Besuchers unter einer pseudonymen ID gesammelt und können vom Seitenbetreiber für Marketingzwecke verwendet werden, zum Beispiel um das Verhalten besonders umsatzstarker Kunden zu erkennen.\nhttps://www.salesforce.com/products/marketing-cloud/best-practices/lookalike-modeling"
}
